plotly.utf8
…
Get the winery which has the top average ratings wine.

wine_df %>% 
  filter(!is.na(winery)) %>% 
  group_by(winery,country) %>% 
  summarise(mean = mean(points)) %>% 
  arrange(desc(mean)) %>% 
  top_n(10)

## `summarise()` regrouping output by 'winery' (override with `.groups` argument)

## Selecting by mean

## # A tibble: 16,961 x 3
## # Groups:   winery [16,757]
##    winery                country    mean
##    <chr>                 <chr>     <dbl>
##  1 Araujo                US         98  
##  2 Gandona               US         97  
##  3 J.L. Chave            France     97  
##  4 Ovid                  US         97  
##  5 Standish              Australia  97  
##  6 Salon                 France     96.8
##  7 Tenuta dell'Ornellaia Italy      96.7
##  8 Château Pétrus        France     96.7
##  9 Barons de Rothschild  France     96  
## 10 Bryant Family         US         96  
## # … with 16,951 more rows
